{
  "swagger": "2.0",
  "info": {
    "title": "raspvyp.proto",
    "version": "version not set"
  },
  "schemes": [
    "http",
    "https"
  ],
  "consumes": [
    "application/json"
  ],
  "produces": [
    "application/json"
  ],
  "paths": {
    "/v1/runner/list": {
      "get": {
        "summary": "List scheduled tasks",
        "operationId": "List",
        "responses": {
          "200": {
            "description": "",
            "schema": {
              "$ref": "#/definitions/protoTaskList"
            }
          }
        },
        "tags": [
          "Runner"
        ]
      }
    },
    "/v1/runner/outputstream": {
      "post": {
        "operationId": "OutputStream",
        "responses": {
          "200": {
            "description": "(streaming responses)",
            "schema": {
              "$ref": "#/definitions/protoOutput"
            }
          }
        },
        "parameters": [
          {
            "name": "body",
            "in": "body",
            "required": true,
            "schema": {
              "$ref": "#/definitions/protoTask"
            }
          }
        ],
        "tags": [
          "Runner"
        ]
      }
    },
    "/v1/runner/removeall": {
      "post": {
        "summary": "Remove all scheduled tasks",
        "operationId": "RemoveAll",
        "responses": {
          "200": {
            "description": "",
            "schema": {
              "$ref": "#/definitions/protoEmpty"
            }
          }
        },
        "parameters": [
          {
            "name": "body",
            "in": "body",
            "required": true,
            "schema": {
              "$ref": "#/definitions/protoEmpty"
            }
          }
        ],
        "tags": [
          "Runner"
        ]
      }
    },
    "/v1/runner/resume": {
      "post": {
        "summary": "Suspend running process. Only id field is significant\nwith this function. Other Task's fields are ignored.",
        "operationId": "Resume",
        "responses": {
          "200": {
            "description": "",
            "schema": {
              "$ref": "#/definitions/protoEmpty"
            }
          }
        },
        "parameters": [
          {
            "name": "body",
            "in": "body",
            "required": true,
            "schema": {
              "$ref": "#/definitions/protoTask"
            }
          }
        ],
        "tags": [
          "Runner"
        ]
      }
    },
    "/v1/runner/start": {
      "post": {
        "summary": "Start new task\nReturns same Task message with initialized id field",
        "operationId": "Start",
        "responses": {
          "200": {
            "description": "",
            "schema": {
              "$ref": "#/definitions/protoTask"
            }
          }
        },
        "parameters": [
          {
            "name": "body",
            "in": "body",
            "required": true,
            "schema": {
              "$ref": "#/definitions/protoTask"
            }
          }
        ],
        "tags": [
          "Runner"
        ]
      }
    },
    "/v1/runner/stat": {
      "get": {
        "summary": "Query host load statistics",
        "operationId": "Stat",
        "responses": {
          "200": {
            "description": "",
            "schema": {
              "$ref": "#/definitions/protoHostStat"
            }
          }
        },
        "tags": [
          "Runner"
        ]
      }
    },
    "/v1/runner/stop": {
      "post": {
        "summary": "Stop running process. Only id field is significant\nwith this function. Other Task's fields are ignored.",
        "operationId": "Stop",
        "responses": {
          "200": {
            "description": "",
            "schema": {
              "$ref": "#/definitions/protoEmpty"
            }
          }
        },
        "parameters": [
          {
            "name": "body",
            "in": "body",
            "required": true,
            "schema": {
              "$ref": "#/definitions/protoTask"
            }
          }
        ],
        "tags": [
          "Runner"
        ]
      }
    },
    "/v1/runner/suspend": {
      "post": {
        "summary": "Suspend running process. Only id field is significant\nwith this function. Other Task's fields are ignored.",
        "operationId": "Suspend",
        "responses": {
          "200": {
            "description": "",
            "schema": {
              "$ref": "#/definitions/protoEmpty"
            }
          }
        },
        "parameters": [
          {
            "name": "body",
            "in": "body",
            "required": true,
            "schema": {
              "$ref": "#/definitions/protoTask"
            }
          }
        ],
        "tags": [
          "Runner"
        ]
      }
    }
  },
  "definitions": {
    "protoEmpty": {
      "type": "object",
      "title": "Dummy message for the case where no parameters needed"
    },
    "protoHostStat": {
      "type": "object",
      "properties": {
        "cpu": {
          "type": "integer",
          "format": "int64"
        },
        "memory": {
          "type": "integer",
          "format": "int64"
        },
        "storage": {
          "type": "integer",
          "format": "int64"
        },
        "network": {
          "type": "integer",
          "format": "int64"
        },
        "hostName": {
          "type": "string"
        }
      }
    },
    "protoOutput": {
      "type": "object",
      "properties": {
        "stdout": {
          "type": "string"
        },
        "stderr": {
          "type": "string"
        }
      }
    },
    "protoTask": {
      "type": "object",
      "properties": {
        "id": {
          "type": "integer",
          "format": "int64"
        },
        "controlGroups": {
          "type": "string"
        },
        "action": {
          "type": "string"
        }
      }
    },
    "protoTaskList": {
      "type": "object",
      "properties": {
        "tasks": {
          "type": "array",
          "items": {
            "$ref": "#/definitions/protoTask"
          }
        }
      }
    }
  }
}
